…
1.1 How many aisles are there, and which aisles are the most items
ordered from?

``` r
n_of_aisles = 
  instacart_df %>% 
  count(aisle, name = "n_of_aisles") %>% 
  arrange(desc(n_of_aisles))

n_of_aisles
```

    ## # A tibble: 134 × 2
    ##    aisle                         n_of_aisles
    ##    <chr>                               <int>
    ##  1 fresh vegetables                   150609
    ##  2 fresh fruits                       150473
    ##  3 packaged vegetables fruits          78493
    ##  4 yogurt                              55240
    ##  5 packaged cheese                     41699
    ##  6 water seltzer sparkling water       36617
    ##  7 milk                                32644
    ##  8 chips pretzels                      31269
    ##  9 soy lactosefree                     26240
    ## 10 bread                               23635
    ## # … with 124 more rows
…
``` r
brfss_df = 
  brfss_df %>% 
  janitor::clean_names() %>% 
  filter(topic == "Overall Health") %>% 
  mutate(
    response = factor(response, 
                     levels = c("Excellent", "Very good", "Good", "Fair", "Poor"),
                     ordered = TRUE)
  )

brfss_df
```

    ## # A tibble: 10,625 × 23
    ##     year locationabbr locationdesc  class  topic  question  response sample_size
    ##    <int> <chr>        <chr>         <chr>  <chr>  <chr>     <ord>          <int>
    ##  1  2010 AL           AL - Jeffers… Healt… Overa… How is y… Excelle…          94
    ##  2  2010 AL           AL - Jeffers… Healt… Overa… How is y… Very go…         148
    ##  3  2010 AL           AL - Jeffers… Healt… Overa… How is y… Good             208
    ##  4  2010 AL           AL - Jeffers… Healt… Overa… How is y… Fair             107
    ##  5  2010 AL           AL - Jeffers… Healt… Overa… How is y… Poor              45
    ##  6  2010 AL           AL - Mobile … Healt… Overa… How is y… Excelle…          91
    ##  7  2010 AL           AL - Mobile … Healt… Overa… How is y… Very go…         177
    ##  8  2010 AL           AL - Mobile … Healt… Overa… How is y… Good             224
    ##  9  2010 AL           AL - Mobile … Healt… Overa… How is y… Fair             120
    ## 10  2010 AL           AL - Mobile … Healt… Overa… How is y… Poor              66
    ## # … with 10,615 more rows, and 15 more variables: data_value <dbl>,
    ## #   confidence_limit_low <dbl>, confidence_limit_high <dbl>,
    ## #   display_order <int>, data_value_unit <chr>, data_value_type <chr>,
    ## #   data_value_footnote_symbol <chr>, data_value_footnote <chr>,
    ## #   data_source <chr>, class_id <chr>, topic_id <chr>, location_id <chr>,
    ## #   question_id <chr>, respid <chr>, geo_location <chr>
…
